[2015-04-12 07:04:21] local.ERROR: exception 'Illuminate\Filesystem\FileNotFoundException' with message 'File does not exist at path /Applications/MAMP/htdocs/snipeit/app/config/local/app.php' in /Applications/MAMP/htdocs/snipeit/bootstrap/compiled.php:4174
Stack trace:
#0 /Applications/MAMP/htdocs/snipeit/vendor/laravel/framework/src/Illuminate/Foundation/Console/KeyGenerateCommand.php(65): Illuminate\Filesystem\Filesystem->get('/Applications/M...')
#1 /Applications/MAMP/htdocs/snipeit/vendor/laravel/framework/src/Illuminate/Foundation/Console/KeyGenerateCommand.php(43): Illuminate\Foundation\Console\KeyGenerateCommand->getKeyFile()
#2 /Applications/MAMP/htdocs/snipeit/vendor/laravel/framework/src/Illuminate/Console/Command.php(112): Illuminate\Foundation\Console\KeyGenerateCommand->fire()
#3 /Applications/MAMP/htdocs/snipeit/vendor/symfony/console/Symfony/Component/Console/Command/Command.php(253): Illuminate\Console\Command->execute(Object(Symfony\Component\Console\Input\ArgvInput), Object(Symfony\Component\Console\Output\ConsoleOutput))
#4 /Applications/MAMP/htdocs/snipeit/vendor/laravel/framework/src/Illuminate/Console/Command.php(100): Symfony\Component\Console\Command\Command->run(Object(Symfony\Component\Console\Input\ArgvInput), Object(Symfony\Component\Console\Output\ConsoleOutput))
#5 /Applications/MAMP/htdocs/snipeit/vendor/symfony/console/Symfony/Component/Console/Application.php(889): Illuminate\Console\Command->run(Object(Symfony\Component\Console\Input\ArgvInput), Object(Symfony\Component\Console\Output\ConsoleOutput))
#6 /Applications/MAMP/htdocs/snipeit/vendor/symfony/console/Symfony/Component/Console/Application.php(193): Symfony\Component\Console\Application->doRunCommand(Object(Illuminate\Foundation\Console\KeyGenerateCommand), Object(Symfony\Component\Console\Input\ArgvInput), Object(Symfony\Component\Console\Output\ConsoleOutput))
#7 /Applications/MAMP/htdocs/snipeit/vendor/symfony/console/Symfony/Component/Console/Application.php(124): Symfony\Component\Console\Application->doRun(Object(Symfony\Component\Console\Input\ArgvInput), Object(Symfony\Component\Console\Output\ConsoleOutput))
#8 /Applications/MAMP/htdocs/snipeit/artisan(59): Symfony\Component\Console\Application->run()
#9 {main} [] []
[2015-04-12 07:04:55] local.ERROR: exception 'Illuminate\Filesystem\FileNotFoundException' with message 'File does not exist at path /Applications/MAMP/htdocs/snipeit/app/config/local/app.php' in /Applications/MAMP/htdocs/snipeit/bootstrap/compiled.php:4174
Stack trace:
#0 /Applications/MAMP/htdocs/snipeit/vendor/laravel/framework/src/Illuminate/Foundation/Console/KeyGenerateCommand.php(65): Illuminate\Filesystem\Filesystem->get('/Applications/M...')
#1 /Applications/MAMP/htdocs/snipeit/vendor/laravel/framework/src/Illuminate/Foundation/Console/KeyGenerateCommand.php(43): Illuminate\Foundation\Console\KeyGenerateCommand->getKeyFile()
#2 /Applications/MAMP/htdocs/snipeit/vendor/laravel/framework/src/Illuminate/Console/Command.php(112): Illuminate\Foundation\Console\KeyGenerateCommand->fire()
#3 /Applications/MAMP/htdocs/snipeit/vendor/symfony/console/Symfony/Component/Console/Command/Command.php(253): Illuminate\Console\Command->execute(Object(Symfony\Component\Console\Input\ArgvInput), Object(Symfony\Component\Console\Output\ConsoleOutput))
#4 /Applications/MAMP/htdocs/snipeit/vendor/laravel/framework/src/Illuminate/Console/Command.php(100): Symfony\Component\Console\Command\Command->run(Object(Symfony\Component\Console\Input\ArgvInput), Object(Symfony\Component\Console\Output\ConsoleOutput))
#5 /Applications/MAMP/htdocs/snipeit/vendor/symfony/console/Symfony/Component/Console/Application.php(889): Illuminate\Console\Command->run(Object(Symfony\Component\Console\Input\ArgvInput), Object(Symfony\Component\Console\Output\ConsoleOutput))
#6 /Applications/MAMP/htdocs/snipeit/vendor/symfony/console/Symfony/Component/Console/Application.php(193): Symfony\Component\Console\Application->doRunCommand(Object(Illuminate\Foundation\Console\KeyGenerateCommand), Object(Symfony\Component\Console\Input\ArgvInput), Object(Symfony\Component\Console\Output\ConsoleOutput))
#7 /Applications/MAMP/htdocs/snipeit/vendor/symfony/console/Symfony/Component/Console/Application.php(124): Symfony\Component\Console\Application->doRun(Object(Symfony\Component\Console\Input\ArgvInput), Object(Symfony\Component\Console\Output\ConsoleOutput))
#8 /Applications/MAMP/htdocs/snipeit/artisan(59): Symfony\Component\Console\Application->run()
#9 {main} [] []
[2015-04-12 07:05:21] production.ERROR: exception 'RuntimeException' with message 'Too many arguments.' in /Applications/MAMP/htdocs/snipeit/vendor/symfony/console/Symfony/Component/Console/Input/ArgvInput.php:181
Stack trace:
#0 /Applications/MAMP/htdocs/snipeit/vendor/symfony/console/Symfony/Component/Console/Input/ArgvInput.php(90): Symfony\Component\Console\Input\ArgvInput->parseArgument('env=local')
#1 /Applications/MAMP/htdocs/snipeit/vendor/symfony/console/Symfony/Component/Console/Input/Input.php(61): Symfony\Component\Console\Input\ArgvInput->parse()
#2 /Applications/MAMP/htdocs/snipeit/vendor/symfony/console/Symfony/Component/Console/Command/Command.php(225): Symfony\Component\Console\Input\Input->bind(Object(Symfony\Component\Console\Input\InputDefinition))
#3 /Applications/MAMP/htdocs/snipeit/vendor/laravel/framework/src/Illuminate/Console/Command.php(100): Symfony\Component\Console\Command\Command->run(Object(Symfony\Component\Console\Input\ArgvInput), Object(Symfony\Component\Console\Output\ConsoleOutput))
#4 /Applications/MAMP/htdocs/snipeit/vendor/symfony/console/Symfony/Component/Console/Application.php(889): Illuminate\Console\Command->run(Object(Symfony\Component\Console\Input\ArgvInput), Object(Symfony\Component\Console\Output\ConsoleOutput))
#5 /Applications/MAMP/htdocs/snipeit/vendor/symfony/console/Symfony/Component/Console/Application.php(193): Symfony\Component\Console\Application->doRunCommand(Object(AppCommand), Object(Symfony\Component\Console\Input\ArgvInput), Object(Symfony\Component\Console\Output\ConsoleOutput))
#6 /Applications/MAMP/htdocs/snipeit/vendor/symfony/console/Symfony/Component/Console/Application.php(124): Symfony\Component\Console\Application->doRun(Object(Symfony\Component\Console\Input\ArgvInput), Object(Symfony\Component\Console\Output\ConsoleOutput))
#7 /Applications/MAMP/htdocs/snipeit/artisan(59): Symfony\Component\Console\Application->run()
#8 {main} [] []
[2015-04-12 07:05:51] local.ERROR: exception 'InvalidArgumentException' with message 'Database [] not configured.' in /Applications/MAMP/htdocs/snipeit/bootstrap/compiled.php:7611
Stack trace:
#0 /Applications/MAMP/htdocs/snipeit/bootstrap/compiled.php(7569): Illuminate\Database\DatabaseManager->getConfig(NULL)
#1 /Applications/MAMP/htdocs/snipeit/bootstrap/compiled.php(7531): Illuminate\Database\DatabaseManager->makeConnection(NULL)
#2 /Applications/MAMP/htdocs/snipeit/vendor/laravel/framework/src/Illuminate/Database/Migrations/DatabaseMigrationRepository.php(167): Illuminate\Database\DatabaseManager->connection(NULL)
#3 /Applications/MAMP/htdocs/snipeit/vendor/laravel/framework/src/Illuminate/Database/Migrations/DatabaseMigrationRepository.php(115): Illuminate\Database\Migrations\DatabaseMigrationRepository->getConnection()
#4 /Applications/MAMP/htdocs/snipeit/vendor/laravel/framework/src/Illuminate/Database/Console/Migrations/InstallCommand.php(52): Illuminate\Database\Migrations\DatabaseMigrationRepository->createRepository()
#5 /Applications/MAMP/htdocs/snipeit/vendor/laravel/framework/src/Illuminate/Console/Command.php(112): Illuminate\Database\Console\Migrations\InstallCommand->fire()
#6 /Applications/MAMP/htdocs/snipeit/vendor/symfony/console/Symfony/Component/Console/Command/Command.php(253): Illuminate\Console\Command->execute(Object(Symfony\Component\Console\Input\ArrayInput), Object(Symfony\Component\Console\Output\ConsoleOutput))
#7 /Applications/MAMP/htdocs/snipeit/vendor/laravel/framework/src/Illuminate/Console/Command.php(100): Symfony\Component\Console\Command\Command->run(Object(Symfony\Component\Console\Input\ArrayInput), Object(Symfony\Component\Console\Output\ConsoleOutput))
#8 /Applications/MAMP/htdocs/snipeit/vendor/laravel/framework/src/Illuminate/Console/Command.php(128): Illuminate\Console\Command->run(Object(Symfony\Component\Console\Input\ArrayInput), Object(Symfony\Component\Console\Output\ConsoleOutput))
#9 /Applications/MAMP/htdocs/snipeit/app/commands/AppCommand.php(89): Illuminate\Console\Command->call('migrate:install')
#10 /Applications/MAMP/htdocs/snipeit/vendor/laravel/framework/src/Illuminate/Console/Command.php(112): AppCommand->fire()
#11 /Applications/MAMP/htdocs/snipeit/vendor/symfony/console/Symfony/Component/Console/Command/Command.php(253): Illuminate\Console\Command->execute(Object(Symfony\Component\Console\Input\ArgvInput), Object(Symfony\Component\Console\Output\ConsoleOutput))
#12 /Applications/MAMP/htdocs/snipeit/vendor/laravel/framework/src/Illuminate/Console/Command.php(100): Symfony\Component\Console\Command\Command->run(Object(Symfony\Component\Console\Input\ArgvInput), Object(Symfony\Component\Console\Output\ConsoleOutput))
#13 /Applications/MAMP/htdocs/snipeit/vendor/symfony/console/Symfony/Component/Console/Application.php(889): Illuminate\Console\Command->run(Object(Symfony\Component\Console\Input\ArgvInput), Object(Symfony\Component\Console\Output\ConsoleOutput))
#14 /Applications/MAMP/htdocs/snipeit/vendor/symfony/console/Symfony/Component/Console/Application.php(193): Symfony\Component\Console\Application->doRunCommand(Object(AppCommand), Object(Symfony\Component\Console\Input\ArgvInput), Object(Symfony\Component\Console\Output\ConsoleOutput))
#15 /Applications/MAMP/htdocs/snipeit/vendor/symfony/console/Symfony/Component/Console/Application.php(124): Symfony\Component\Console\Application->doRun(Object(Symfony\Component\Console\Input\ArgvInput), Object(Symfony\Component\Console\Output\ConsoleOutput))
#16 /Applications/MAMP/htdocs/snipeit/artisan(59): Symfony\Component\Console\Application->run()
#17 {main} [] []
